^C:\USERS\SAMTR\SOURCE\REPOS\SST.LABEXERCISE3\SST.LABEXERCISE3\DEBUG\MAIN.OBJ
C:\USERS\SAMTR\SOURCE\REPOS\SST.LABEXERCISE3\DEBUG\SST.LABEXERCISE3.EXE
C:\USERS\SAMTR\SOURCE\REPOS\SST.LABEXERCISE3\DEBUG\SST.LABEXERCISE3.ILK
C:\USERS\SAMTR\SOURCE\REPOS\SST.LABEXERCISE3\DEBUG\SST.LABEXERCISE3.PDB
